<?xml version="1.0" encoding="UTF-8" standalone="no"?>
<!-- Created with Inkscape (http://www.inkscape.org/) -->

<svg
   width="512mm"
   height="512mm"
   viewBox="0 0 1814.1732 1814.1732"
   id="svg4160"
   version="1.1"
   inkscape:version="1.1 (c4e8f9e, 2021-05-24)"
   sodipodi:docname="universis_icon_logo_mono_transparent.svg"
   inkscape:export-filename="/Users/kbarbounakis/Projects/universis/universis-teachers/src/assets/img/favicon.png"
   inkscape:export-xdpi="4.96"
   inkscape:export-ydpi="4.96"
   xmlns:inkscape="http://www.inkscape.org/namespaces/inkscape"
   xmlns:sodipodi="http://sodipodi.sourceforge.net/DTD/sodipodi-0.dtd"
   xmlns="http://www.w3.org/2000/svg"
   xmlns:svg="http://www.w3.org/2000/svg"
   xmlns:rdf="http://www.w3.org/1999/02/22-rdf-syntax-ns#"
   xmlns:cc="http://creativecommons.org/ns#"
   xmlns:dc="http://purl.org/dc/elements/1.1/">
  <defs
     id="defs4162" />
  <sodipodi:namedview
     id="base"
     pagecolor="#ffffff"
     bordercolor="#666666"
     borderopacity="1.0"
     inkscape:pageopacity="0.0"
     inkscape:pageshadow="2"
     inkscape:zoom="0.30537326"
     inkscape:cx="905.44929"
     inkscape:cy="905.44929"
     inkscape:document-units="px"
     inkscape:current-layer="layer1"
     showgrid="true"
     inkscape:window-width="1280"
     inkscape:window-height="685"
     inkscape:window-x="0"
     inkscape:window-y="25"
     inkscape:window-maximized="0"
     inkscape:pagecheckerboard="0">
    <inkscape:grid
       type="xygrid"
       id="grid4708" />
  </sodipodi:namedview>
  <metadata
     id="metadata4165">
    <rdf:RDF>
      <cc:Work
         rdf:about="">
        <dc:format>image/svg+xml</dc:format>
        <dc:type
           rdf:resource="http://purl.org/dc/dcmitype/StillImage" />
      </cc:Work>
    </rdf:RDF>
  </metadata>
  <g
     inkscape:label="Layer 1"
     inkscape:groupmode="layer"
     id="layer1"
     transform="translate(0,761.81102)">
    <path
       transform="rotate(-90)"
       sodipodi:open="true"
       sodipodi:end="3.1304142"
       sodipodi:start="0"
       sodipodi:ry="816"
       sodipodi:rx="816"
       sodipodi:cy="701.50165"
       sodipodi:cx="-145.30109"
       sodipodi:type="arc"
       id="path4152"
       style="opacity:1;fill:#e6e6e6;fill-opacity:0.51417005;stroke:none;stroke-width:40;stroke-linejoin:miter;stroke-miterlimit:4;stroke-dasharray:none;stroke-opacity:1"
       sodipodi:arc-type="arc"
       d="M 670.69891,701.50165 A 816,816 0 0 1 -140.7403,1517.4889 816,816 0 0 1 -961.2501,710.62308" />
    <path
       transform="rotate(90)"
       sodipodi:open="true"
       sodipodi:end="3.1371049"
       sodipodi:start="0"
       sodipodi:ry="408"
       sodipodi:rx="408"
       sodipodi:cy="-704.67157"
       sodipodi:cx="550.82288"
       sodipodi:type="arc"
       id="path4152-5"
       style="opacity:1;fill:#cccccc;fill-opacity:0.50202429;stroke:none;stroke-width:40;stroke-linejoin:miter;stroke-miterlimit:4;stroke-dasharray:none;stroke-opacity:1"
       sodipodi:arc-type="arc"
       d="M 958.82288,-704.67157 A 408,408 0 0 1 551.73838,-296.6726 408,408 0 0 1 142.82698,-702.84057" />
    <path
       transform="rotate(-90)"
       sodipodi:open="true"
       sodipodi:end="3.1371049"
       sodipodi:start="0"
       sodipodi:ry="408"
       sodipodi:rx="408"
       sodipodi:cy="703.05145"
       sodipodi:cx="-550.82697"
       sodipodi:type="arc"
       id="path4152-5-4"
       style="opacity:1;fill:#ffffff;fill-opacity:0.53036439;stroke:none;stroke-width:40;stroke-linejoin:miter;stroke-miterlimit:4;stroke-dasharray:none;stroke-opacity:1"
       sodipodi:arc-type="arc"
       d="M -142.82697,703.05145 A 408,408 0 0 1 -549.91146,1111.0504 408,408 0 0 1 -958.82286,704.88245" />
  </g>
</svg>
