{
    "ActiveActionStatus": {
        "el": "Σε εξέλιξη",
        "en": "In progress"
    },
    "CompletedActionStatus": {
        "el": "Ολοκληρώθηκε",
        "en": "Completed"
    },
    "FailedActionStatus": {
        "el": "Απέτυχε",
        "en": "Failed"
    },
    "components": [
        {
            "label": "Columns",
            "columns": [
                {
                    "components": [
                        {
                            "label": "Students.studentIdentifier",
                            "spellcheck": true,
                            "tableView": true,
                            "validate": {
                                "unique": false,
                                "multiple": false
                            },
                            "key": "studentIdentifier",
                            "type": "textfield",
                            "input": true,
                            "hideOnChildrenHidden": false
                        }
                    ],
                    "width": 3,
                    "offset": 0,
                    "push": 0,
                    "pull": 0
                },
                {
                    "components": [
                        {
                            "label": "Graduations.FullName",
                            "spellcheck": true,
                            "tableView": true,
                            "validate": {
                                "unique": false,
                                "multiple": false
                            },
                            "key": "studentName",
                            "type": "textfield",
                            "input": true,
                            "hideOnChildrenHidden": false
                        }
                    ],
                    "width": 5,
                    "offset": 0,
                    "push": 0,
                    "pull": 0
                },
                {
                    "components": [
                        {
                            "label": "Graduations.StudentUserName",
                            "spellcheck": true,
                            "tableView": true,
                            "validate": {
                                "unique": false,
                                "multiple": false
                            },
                            "key": "studentUsername",
                            "type": "textfield",
                            "input": true,
                            "hideOnChildrenHidden": false
                        }
                    ],
                    "width": 4,
                    "offset": 0,
                    "push": 0,
                    "pull": 0
                },
                {
                    "components": [
                        {
                            "label": "Graduations.CourseName",
                            "spellcheck": true,
                            "tableView": true,
                            "validate": {
                                "unique": false,
                                "multiple": false
                            },
                            "key": "courseName",
                            "type": "textfield",
                            "input": true,
                            "hideOnChildrenHidden": false
                        }
                    ],
                    "width": 6,
                    "offset": 0,
                    "push": 0,
                    "pull": 0
                },
                {
                    "components": [
                        {
                            "label": "Graduations.CourseDisplayCode",
                            "spellcheck": true,
                            "tableView": true,
                            "validate": {
                                "unique": false,
                                "multiple": false
                            },
                            "key": "courseDisplayCode",
                            "type": "textfield",
                            "input": true,
                            "hideOnChildrenHidden": false
                        }
                    ],
                    "width": 3,
                    "offset": 0,
                    "push": 0,
                    "pull": 0
                },
                {
                    "components": [
                        {
                            "label": "Graduations.Updated",
                            "widget": "choicesjs",
                            "data": {
                                "values": [
                                    {
                                        "label": "Yes",
                                        "value": 1
                                    },
                                    {
                                        "label": "No",
                                        "value": -1
                                    }
                                ]
                            },
                            "selectThreshold": 0.3,
                            "validate": {
                                "unique": false,
                                "multiple": false
                            },
                            "key": "successfullyUpdated",
                            "valueProperty": "value",
                            "selectValues": "value",
                            "type": "select",
                            "input": true,
                            "searchEnabled": false,
                            "hideOnChildrenHidden": false,
                            "disableLimit": false,
                            "lazyLoad": false
                        }
                    ],
                    "width": 3,
                    "offset": 0,
                    "push": 0,
                    "pull": 0
                },
                {
                    "components": [
                        {
                            "label": "Graduations.CalculationDateCreated",
                            "widget": "choicesjs",
                            "dataSrc": "url",
                            "customConditional": "show = !!form.graduationEvent;",
                            "data": {
                                "url": "PercentileRankActions?$filter=targetType eq 'GraduationEvent' and targetIdentifier eq '{{form.graduationEvent}}' and rankType/alternateName eq 'coursePercentileRank'&$orderby=dateCreated desc",
                                "headers": []
                            },
                            "selectThreshold": 0.3,
                            "validate": {
                                "unique": false,
                                "multiple": false
                            },
                            "template": "<span class='d-block pr-5 text-truncate'>{{moment(item.dateCreated).locale(instance.i18next.language).format('LLL')}}</span>",
                            "key": "actionId",
                            "valueProperty": "id",
                            "selectValues": "value",
                            "type": "select",
                            "input": true,
                            "hideOnChildrenHidden": false,
                            "disableLimit": false,
                            "lazyLoad": true
                        }
                    ],
                    "width": 6,
                    "offset": 0,
                    "push": 0,
                    "pull": 0
                },
                {
                    "components": [
                        {
                            "label": "Graduations.RelatedActionStatus",
                            "widget": "choicesjs",
                            "dataSrc": "url",
                            "data": {
                                "url": "ActionStatusTypes?$filter=alternateName eq 'CompletedActionStatus' or alternateName eq 'ActiveActionStatus' or alternateName eq 'FailedActionStatus'",
                                "headers": []
                            },
                            "selectThreshold": 0.3,
                            "validate": {
                                "unique": false,
                                "multiple": false
                            },
                            "template": "{{ form[item.alternateName][instance.i18next.language] }}",
                            "key": "actionStatus",
                            "valueProperty": "alternateName",
                            "selectValues": "value",
                            "type": "select",
                            "input": true,
                            "hideOnChildrenHidden": false,
                            "disableLimit": false,
                            "lazyLoad": false
                        }
                    ],
                    "width": 6,
                    "offset": 0,
                    "push": 0,
                    "pull": 0
                }
            ],
            "tableView": false,
            "key": "columns1",
            "type": "columns",
            "input": false,
            "path": "columns1"
        }
    ]
}
