{
    "components": [
      {
        "label": "Columns",
        "columns": [
          {
            "components": [
              {
                "label": "Settings.Attributes.title",
                "spellcheck": true,
                "tableView": true,
                "validate": {
                  "unique": false,
                  "multiple": false
                },
                "key": "title",
                "type": "textfield",
                "input": true,
                "hideOnChildrenHidden": false
              }
            ],
            "width": 6,
            "offset": 0,
            "push": 0,
            "pull": 0
          },
          {
            "components": [
              {
                "label": "Settings.Attributes.titleID",
                "spellcheck": true,
                "tableView": true,
                "validate": {
                  "unique": false,
                  "multiple": false
                },
                "key": "titleID",
                "type": "textfield",
                "input": true,
                "hideOnChildrenHidden": false
              }
            ],
            "width": 3,
            "offset": 0,
            "push": 0,
            "pull": 0
          },
          {
            "components": [
              {
                "label": "Department",
                "widget": "choicesjs",
                "dataSrc": "url",
                "defaultValue": "",
                "labelPosition": "top",
                "data": {
                  "values": [],
                  "url": "/LocalDepartments?$top=-1&$skip=0&$orderby=name&&$filter=alternativeCode ne null&$select=id,name,alternativeCode",
                  "headers": []
                },
                "validate": {
                  "required": false
                },
                "valueProperty": "alternativeCode",
                "lazyLoad": false,
                "dataType": "string",
                "template": "[{{ item.alternativeCode }}] {{ item.name }}",
                "selectThreshold": 0.3,
                "key": "departmentCode",
                "type": "select",
                "selectValues": "value",
                "input": true
              }
            ],
            "width": 6
          },
          {
            "components": [
              {
                "label": "Settings.Attributes.DegreeTemplate.publisherName",
                "spellcheck": true,
                "tableView": true,
                "validate": {
                  "unique": false,
                  "multiple": false
                },
                "key": "publisherName",
                "type": "textfield",
                "input": true,
                "hideOnChildrenHidden": false
              }
            ],
            "width": 6,
            "offset": 0,
            "push": 0,
            "pull": 0
          }
        ],
        "tableView": false,
        "key": "columns1",
        "type": "columns",
        "input": false,
        "path": "columns1"
      }
    ]
  }
  