{
  "components": [
    {
      "label": "Columns",
      "columns": [
        {
          "components": [
            {
              "label": "Students.studentIdentifier",
              "spellcheck": true,
              "tableView": true,
              "validate": {
                "unique": false,
                "multiple": false
              },
              "key": "studentIdentifier",
              "type": "textfield",
              "input": true,
              "hideOnChildrenHidden": false
            }
          ],
          "width": 3,
          "offset": 0,
          "push": 0,
          "pull": 0
        },
        {
          "components": [
            {
              "label": "Students.fullName",
              "spellcheck": true,
              "tableView": true,
              "validate": {
                "unique": false,
                "multiple": false
              },
              "key": "studentName",
              "type": "textfield",
              "input": true,
              "hideOnChildrenHidden": false
            }
          ],
          "width": 3,
          "offset": 0,
          "push": 0,
          "pull": 0
        },
        {
          "components": [
            {
              "label": "Requests.StudentStatus",
              "widget": "choicesjs",
              "dataSrc": "url",
              "data": {
                "url": "StudentStatuses?$orderby=name",
                "headers": []
              },
              "selectThreshold": 0.3,
              "validate": {
                "unique": false,
                "multiple": false
              },
              "template": "{{ item.name }}",
              "key": "studentStatus",
              "valueProperty": "alternateName",
              "selectValues": "value",
              "type": "select",
              "input": true,
              "hideOnChildrenHidden": false,
              "disableLimit": false,
              "lazyLoad": false
            }
          ],
          "width": 3,
          "offset": 0,
          "push": 0,
          "pull": 0
        },
        {
          "components": [
            {
              "label": "Requests.AgentName",
              "spellcheck": true,
              "tableView": true,
              "validate": {
                "unique": false,
                "multiple": false
              },
              "key": "agentName",
              "type": "textfield",
              "input": true,
              "hideOnChildrenHidden": false
            }
          ],
          "width": 3,
          "offset": 0,
          "push": 0,
          "pull": 0
        },
        {
          "components": [
            {
              "label": "Requests.ActionStatusTitle",
              "widget": "choicesjs",
              "dataSrc": "url",
              "data": {
                "url": "ActionStatusTypes",
                "headers": []
              },
              "selectThreshold": 0.3,
              "validate": {
                "unique": false,
                "multiple": false
              },
              "template": "{{ item.alternateName }}",
              "key": "actionStatus",
              "valueProperty": "alternateName",
              "selectValues": "value",
              "type": "select",
              "input": true,
              "hideOnChildrenHidden": false,
              "disableLimit": false,
              "lazyLoad": false
            }
          ],
          "width": 3,
          "offset": 0,
          "push": 0,
          "pull": 0
        },
        {
          "components": [
            {
              "label": "Labels.AcademicYear",
              "widget": "choicesjs",
              "dataSrc": "url",
              "data": {
                "url": "AcademicYears?$orderby=id desc",
                "headers": []
              },
              "selectThreshold": 0.3,
              "validate": {
                "unique": false,
                "multiple": false
              },
              "template": "{{ item.name }}",
              "key": "academicYear",
              "valueProperty": "id",
              "selectValues": "value",
              "type": "select",
              "input": true,
              "hideOnChildrenHidden": false,
              "disableLimit": false,
              "lazyLoad": false
            }
          ],
          "width": 3,
          "offset": 0,
          "push": 0,
          "pull": 0
        },
        {
            "components": [
              {
                "label": "Labels.AcademicPeriod",
                "widget": "choicesjs",
                "dataSrc": "url",
                "data": {
                  "url": "AcademicPeriods?$orderby=id",
                  "headers": []
                },
                "selectThreshold": 0.3,
                "validate": {
                },
                "template": "{{ item.name }}",
                "key": "academicPeriod",
                "valueProperty": "alternateName",
                "selectValues": "value",
                "type": "select",
                "input": true,
                "hideOnChildrenHidden": false,
                "disableLimit": false,
                "lazyLoad": false
              }
            ],
            "width": 3,
            "offset": 0,
            "push": 0,
            "pull": 0
        },
        {
            "components": [
              {
                "label": "Students.studyProgram",
                "labelPosition": "top",
                "widget": "choicesjs",
                "key": "studyProgram",
                "dataSrc": "url",
                "data": {
                  "url": "PreferredSpecialtyRequestActions?$select=specialty/studyProgram/id as studyProgram, specialty/studyProgram/name as studyProgramName&$groupby=specialty/studyProgram/id, specialty/studyProgram/name&$top=-1",
                  "headers": []
                },
                "dataType": "object",
                "idPath": "studyProgram",
                "template": "{{ item?.studyProgramName }}",
                "selectValues": "value",
                "type": "select",
                "input": true,
                "disabled": false,
                "lazyLoad": false,
                "searchEnabled": true
              }
            ],
            "width": 3,
            "offset": 0,
            "push": 0,
            "pull": 0
        },
        {
            "components": [
              {
                "label": "Requests.TargetSpecialty",
                "labelPosition": "top",
                "widget": "choicesjs",
                "dataSrc": "url",
                "data": {
                  "url": "/StudyProgramSpecialties?$select=id,name&$filter=studyProgram eq {{data?.studyProgram?.studyProgram || 0}}&$top=-1",
                  "headers": []
                },
                "dataType": "object",
                "idPath": "id",
                "redrawOn": "studyProgram",
                "lazyLoad": true,
                "clearOnRefresh": true,
                "template": "{{ item.name }}",
                "selectThreshold": 0.3,
                "key": "studyProgramSpecialty",
                "type": "select",
                "selectValues": "value",
                "input": true
              }
            ],
            "width": 3
        },
        {
          "components": [
            {
              "label": "Requests.RequestedAfter",
              "tableView": false,
              "enableTime": false,
              "enableMinDateInput": false,
              "datePicker": {
                "disableWeekends": false,
                "disableWeekdays": false
              },
              "enableMaxDateInput": false,
              "key": "minDate",
              "type": "datetime",
              "input": true,
              "widget": {
                "type": "calendar",
                "displayInTimezone": "viewer",
                "locale": "en",
                "useLocaleSettings": false,
                "allowInput": true,
                "mode": "single",
                "enableTime": true,
                "noCalendar": false,
                "format": "yyyy-MM-dd",
                "hourIncrement": 1,
                "minuteIncrement": 1,
                "time_24hr": true,
                "disableWeekends": false,
                "disableWeekdays": false
              }
            }
          ],
          "width": 3,
          "offset": 0,
          "push": 0,
          "pull": 0
        },
        {
          "components": [
            {
              "label": "Requests.RequestedBefore",
              "tableView": false,
              "enableMinDateInput": false,
              "enableTime": false,
              "datePicker": {
                "disableWeekends": false,
                "disableWeekdays": false
              },
              "enableMaxDateInput": false,
              "key": "maxDate",
              "type": "datetime",
              "input": true,
              "widget": {
                "type": "calendar",
                "displayInTimezone": "viewer",
                "useLocaleSettings": true,
                "allowInput": true,
                "mode": "single",
                "enableTime": true,
                "noCalendar": false,
                "time_24hr": false,
                "disableWeekends": false,
                "disableWeekdays": false
              }
            }
          ],
          "width": 3,
          "offset": 0,
          "push": 0,
          "pull": 0
        },
        {
          "components": [
            {
              "label": "Requests.CanSelectSpecialty",
              "widget": "choicesjs",
              "data": {
                "values": [
                  {
                    "label": "No",
                    "value": -1
                  },
                  {
                    "label": "Yes",
                    "value": 1
                  }
                ]
              },
              "selectThreshold": 0.3,
              "validate": {
                "unique": false,
                "multiple": false
              },
              "key": "canSelectSpecialty",
              "valueProperty": "value",
              "selectValues": "value",
              "type": "select",
              "input": true,
              "searchEnabled": false,
              "hideOnChildrenHidden": false,
              "disableLimit": false,
              "lazyLoad": false
            }
          ],
          "width": 3,
          "offset": 0,
          "push": 0,
          "pull": 0
        }
      ],
      "customClass": "formio-component-select-wrap",
      "tableView": false,
      "key": "columns1",
      "type": "columns",
      "input": false,
      "path": "columns1"
    }
  ]
}
