 {
  "model": "StudentCourses",
  "title": "Students grades",
  "columns": [
    {
      "name": "course/displayCode",
      "property": "displayCode",
      "title": "Students.CourseDisplayCode"
    },
    {
      "name": "course/name",
      "property": "title",
      "title": "Students.CourseTitle"
    },
    {
      "name": "courseType/name",
      "property": "courseType",
      "title": "Students.CourseType"
    },
    {
      "name": "semester/name",
      "property": "semester",
      "title": "Students.semester"
    },
    {
      "name": "course/ects",
      "property": "ects",
      "title": "Students.Εcts"
    },
    {
      "name": "formattedGrade",
      "property": "formattedGrade",
      "title": "Students.FormattedGrade"
    },
    {
      "name": "gradeYear/alternateName",
      "property": "gradeYear",
      "title": "Students.GradeYear"
    },
    {
      "name": "gradePeriod/alternateName",
      "property": "gradePeriod",
      "title": "Students.GradePeriod",
      "formatter": "TranslationFormatter",
      "formatString": "Periods.${value}"
    },
    {
      "name": "examPeriod/name",
      "property": "examPeriod",
      "title": "Students.ExamPeriod"
    }
  ]
}

