{
  "columns": [
    {
      "name": "reportVariable/name",
      "property": "reportVariableName",
      "title": "Settings.Attributes.name"
    },
    {
      "name": "reportVariable/typeString",
      "property": "reportVariableType",
      "title": "Settings.Attributes.typeString",
      "formatter": "TranslationFormatter",
      "formatString": "Forms.${value}",
      "hidden": false
    },
    {
      "name": "inLanguage",
      "property": "inLanguage",
      "title": "Settings.Attributes.inLanguage",
      "hidden": false,
      "formatter": "LanguageFormatter"
    },
    {
      "name": "valueText",
      "property": "valueText",
      "title": "Forms.Text",
      "hidden": false,
      "formatter": "TemplateFormatter",
      "formatString": "${valueText != null ? (valueText.length > 32 ? valueText.substring(0,31) + '...' : valueText): '-'}"
    },
    {
      "name": "valueNumber",
      "property": "valueNumber",
      "title": "Forms.Number",
      "hidden": false
    },
    {
      "name": "valueBoolean",
      "property": "valueBoolean",
      "title": "Forms.Boolean",
      "hidden": false,
      "formatter": "TrueFalseFormatter"
    },
    {
      "name": "id",
      "formatter": "ButtonFormatter",
      "formatString":"(modal:edit)",
      "className": "text-center",
      "formatOptions": {
        "buttonContent": "<i class=\"far fa-edit text-indigo\"></i>",
        "buttonClass": "btn btn-default"
      }
    }
  ],
  "defaults": {
    "filter": "(department eq ${currentDepartment})",
    "orderBy": "dateModified desc,dateCreated desc"
  }
}
