{
  "model": "StudentGradeRemarkActions",
  "settings": {
    "i18n": {
      "el": {
        "Remark date": "Ημερομηνία αναβαθμολόγησης",
        "Grade": "Βαθμός",
        "Status": "Κατάσταση",
        "Grade remark request info": "Στοιχεία αίτησης αναβαθμολόγησης",
        "Remark decision": "Αριθμός απόφασης",
        "Comments": "Σχόλια",
        "Additional notes regarding the request": "Ορίστε κάποια επιπλέον σημείωση εάν χρειάζεται η αίτηση",
        "You can reject the request and restore the grade or approve it to accept the remarking": "Μπορείτε να απορρίψετε την αίτηση και να επαναφέρετε τον βαθμό ή να την εγκρίνετε για να καταχωρηθεί η αναβαθμολόγηση"
      }
    }
  },
  "components": [
    {
      "legend": "Grade remark request info",
      "key": "fieldset",
      "type": "fieldset",
      "input": false,
      "components": [
        {
          "columns": [
            {
              "components": [
                {
                  "label": "Remark date",
                  "labelPosition": "top",
                  "widget": {
                    "type": "input"
                  },
                  "key": "remarkDate",
                  "validate": {
                    "required": true
                  },
                  "type": "datetime",
                  "format": "dd/MM/yyyy",
                  "input": true
                }
              ],

              "width": 4,
              "offset": 0,
              "push": 0,
              "pull": 0
            },
            {
              "components": [
                {
                  "label": "Remark decision",
                  "labelPosition": "top",
                  "widget": {
                    "type": "input"
                  },
                  "validate": {
                    "required": false
                  },
                  "key": "remarkDecision",
                  "type": "textfield",
                  "input": true
                }
              ],
              "width": 6
            },
            {
              "components": [
                {
                  "label": "Comments",
                  "widget": "choicesjs",
                  "selectThreshold": 0.3,
                  "validate": {
                    "unique": false,
                    "multiple": false
                  },
                  "key": "comments",
                  "type": "textarea",
                  "input": true,
                  "hideOnChildrenHidden": false,
                  "disableLimit": false,
                  "description": "Additional notes regarding the request"
                }
              ],
              "width": 12,
              "offset": 0,
              "push": 0,
              "pull": 0
            },
            {
              "components": [
                {
                  "label": "Status",
                  "widget": "choicesjs",
                  "dataSrc": "url",
                  "data": {
                    "url": "ActionStatusTypes?$filter=(alternateName eq  'CompletedActionStatus' or alternateName eq  'CancelledActionStatus')",
                    "headers": []
                  },
                  "selectThreshold": 0.3,
                  "validate": {
                    "unique": false,
                    "multiple": false,
                    "required": true
                  },
                  "template": "{{ item.alternateName }}",
                  "key": "actionStatus",
                  "selectValues": "value",
                  "type": "select",
                  "input": true,
                  "hideOnChildrenHidden": false,
                  "disableLimit": false,
                  "lazyLoad": false,
                  "description": "You can reject the request and restore the grade or approve it to accept the remarking"
                }
              ],
              "width": 6,
              "offset": 0,
              "push": 0,
              "pull": 0
            }
          ],
          "customClass": "text-dark",
          "type": "columns",
          "input": false
        }
      ]
    }
  ]
}
